---
source: src/parser.rs
expression: err
---
Error {
    variant: ParsingError {
        positives: [
            pem_footer_certificate,
            pem_footer_any,
        ],
        negatives: [],
    },
    location: Pos(
        788,
    ),
    line_col: Pos(
        (
            14,
            1,
        ),
    ),
    path: None,
    line: "",
    continued_line: None,
    parse_attempts: Some(
        ParseAttempts {
            call_stacks: [
                RulesCallStack {
                    deepest: Rule(
                        pem_footer_certificate,
                    ),
                    parent: Some(
                        pem_file,
                    ),
                },
                RulesCallStack {
                    deepest: Rule(
                        correct_lf_newline,
                    ),
                    parent: Some(
                        pem_file,
                    ),
                },
                RulesCallStack {
                    deepest: Rule(
                        pem_footer_any,
                    ),
                    parent: Some(
                        pem_file,
                    ),
                },
            ],
            expected_tokens: [
                BuiltInRule,
                Sensitive {
                    token: "-",
                },
                Sensitive {
                    token: "-",
                },
                Sensitive {
                    token: "-",
                },
                BuiltInRule,
                Sensitive {
                    token: "-",
                },
                Sensitive {
                    token: "-",
                },
                Sensitive {
                    token: "-",
                },
            ],
            unexpected_tokens: [
                Sensitive {
                    token: "\n",
                },
            ],
            max_position: 788,
        },
    ),
}
