---
source: src/parser.rs
expression: parse_result
---
Err(
    [
        Pair {
            rule: pem_file,
            span: Span {
                str: "-----BEGIN CERTIFICATE-----\nMIICLDCCAdKgAwIBAgIBADAKBggqhkjOPQQDAjB9MQswCQYDVQQGEwJCRTEPMA0G\nA1UEChMGR251VExTMSUwIwYDVQQLExxHbnVUTFMgY2VydGlmaWNhdGUgYXV0aG9y \naXR5MQ8wDQYDVQQIEwZMZXV2ZW4xJTAjBgNVBAMTHEdudVRMUyBjZXJ0aWZpY2F0\nZSBhdXRob3JpdHkwHhcNMTEwNTIzMjAzODIxWhcNMTIxMjIyMDc0MTUxWjB9MQsw\nCQYDVQQGEwJCRTEPMA0GA1UEChMGR251VExTMSUwIwYDVQQLExxHbnVUTFMgY2Vy\ndGlmaWNhdGUgYXV0aG9yaXR5MQ8wDQYDVQQIEwZMZXV2ZW4xJTAjBgNVBAMTHEdu\ndVRMUyBjZXJ0aWZpY2F0ZSBhdXRob3JpdHkwWTATBgcqhkjOPQIBBggqhkjOPQMB\nBwNCAARS2I0jiuNn14Y2sSALCX3IybqiIJUvxUpj+oNfzngvj/Niyv2394BWnW4X\nuQ4RTEiywK87WRcWMGgJB5kX/t2no0MwQTAPBgNVHRMBAf8EBTADAQH/MA8GA1Ud\nDwEB/wQFAwMHBgAwHQYDVR0OBBYEFPC0gf6YEr+1KLlkQAPLzB9mTigDMAoGCCqG\nSM49BAMCA0gAMEUCIDGuwD1KPyG+hRf88MeyMQcqOFZD0TbVleF+UsAGQ4enAiEA\nl4wOuDwKQa+upc8GftXE2C//4mKANBC6It01gUaTIpo=\n-----END CERTIFICATE-----\n",
                start: 0,
                end: 815,
            },
            inner: [
                Pair {
                    rule: pem_item,
                    span: Span {
                        str: "-----BEGIN CERTIFICATE-----\nMIICLDCCAdKgAwIBAgIBADAKBggqhkjOPQQDAjB9MQswCQYDVQQGEwJCRTEPMA0G\nA1UEChMGR251VExTMSUwIwYDVQQLExxHbnVUTFMgY2VydGlmaWNhdGUgYXV0aG9y \naXR5MQ8wDQYDVQQIEwZMZXV2ZW4xJTAjBgNVBAMTHEdudVRMUyBjZXJ0aWZpY2F0\nZSBhdXRob3JpdHkwHhcNMTEwNTIzMjAzODIxWhcNMTIxMjIyMDc0MTUxWjB9MQsw\nCQYDVQQGEwJCRTEPMA0GA1UEChMGR251VExTMSUwIwYDVQQLExxHbnVUTFMgY2Vy\ndGlmaWNhdGUgYXV0aG9yaXR5MQ8wDQYDVQQIEwZMZXV2ZW4xJTAjBgNVBAMTHEdu\ndVRMUyBjZXJ0aWZpY2F0ZSBhdXRob3JpdHkwWTATBgcqhkjOPQIBBggqhkjOPQMB\nBwNCAARS2I0jiuNn14Y2sSALCX3IybqiIJUvxUpj+oNfzngvj/Niyv2394BWnW4X\nuQ4RTEiywK87WRcWMGgJB5kX/t2no0MwQTAPBgNVHRMBAf8EBTADAQH/MA8GA1Ud\nDwEB/wQFAwMHBgAwHQYDVR0OBBYEFPC0gf6YEr+1KLlkQAPLzB9mTigDMAoGCCqG\nSM49BAMCA0gAMEUCIDGuwD1KPyG+hRf88MeyMQcqOFZD0TbVleF+UsAGQ4enAiEA\nl4wOuDwKQa+upc8GftXE2C//4mKANBC6It01gUaTIpo=\n-----END CERTIFICATE-----\n",
                        start: 0,
                        end: 815,
                    },
                    inner: [
                        Pair {
                            rule: pem_certificate,
                            span: Span {
                                str: "-----BEGIN CERTIFICATE-----\nMIICLDCCAdKgAwIBAgIBADAKBggqhkjOPQQDAjB9MQswCQYDVQQGEwJCRTEPMA0G\nA1UEChMGR251VExTMSUwIwYDVQQLExxHbnVUTFMgY2VydGlmaWNhdGUgYXV0aG9y \naXR5MQ8wDQYDVQQIEwZMZXV2ZW4xJTAjBgNVBAMTHEdudVRMUyBjZXJ0aWZpY2F0\nZSBhdXRob3JpdHkwHhcNMTEwNTIzMjAzODIxWhcNMTIxMjIyMDc0MTUxWjB9MQsw\nCQYDVQQGEwJCRTEPMA0GA1UEChMGR251VExTMSUwIwYDVQQLExxHbnVUTFMgY2Vy\ndGlmaWNhdGUgYXV0aG9yaXR5MQ8wDQYDVQQIEwZMZXV2ZW4xJTAjBgNVBAMTHEdu\ndVRMUyBjZXJ0aWZpY2F0ZSBhdXRob3JpdHkwWTATBgcqhkjOPQIBBggqhkjOPQMB\nBwNCAARS2I0jiuNn14Y2sSALCX3IybqiIJUvxUpj+oNfzngvj/Niyv2394BWnW4X\nuQ4RTEiywK87WRcWMGgJB5kX/t2no0MwQTAPBgNVHRMBAf8EBTADAQH/MA8GA1Ud\nDwEB/wQFAwMHBgAwHQYDVR0OBBYEFPC0gf6YEr+1KLlkQAPLzB9mTigDMAoGCCqG\nSM49BAMCA0gAMEUCIDGuwD1KPyG+hRf88MeyMQcqOFZD0TbVleF+UsAGQ4enAiEA\nl4wOuDwKQa+upc8GftXE2C//4mKANBC6It01gUaTIpo=\n-----END CERTIFICATE-----\n",
                                start: 0,
                                end: 815,
                            },
                            inner: [
                                Pair {
                                    rule: pem_header_certificate,
                                    span: Span {
                                        str: "-----BEGIN CERTIFICATE-----\n",
                                        start: 0,
                                        end: 28,
                                    },
                                    inner: [
                                        Pair {
                                            rule: five_dashes,
                                            span: Span {
                                                str: "-----",
                                                start: 0,
                                                end: 5,
                                            },
                                            inner: [
                                                Pair {
                                                    rule: correct_five_dashes,
                                                    span: Span {
                                                        str: "-----",
                                                        start: 0,
                                                        end: 5,
                                                    },
                                                    inner: [],
                                                },
                                            ],
                                        },
                                        Pair {
                                            rule: BEGIN,
                                            span: Span {
                                                str: "BEGIN",
                                                start: 5,
                                                end: 10,
                                            },
                                            inner: [],
                                        },
                                        Pair {
                                            rule: space,
                                            span: Span {
                                                str: " ",
                                                start: 10,
                                                end: 11,
                                            },
                                            inner: [],
                                        },
                                        Pair {
                                            rule: CERTIFICATE,
                                            span: Span {
                                                str: "CERTIFICATE",
                                                start: 11,
                                                end: 22,
                                            },
                                            inner: [],
                                        },
                                        Pair {
                                            rule: five_dashes,
                                            span: Span {
                                                str: "-----",
                                                start: 22,
                                                end: 27,
                                            },
                                            inner: [
                                                Pair {
                                                    rule: correct_five_dashes,
                                                    span: Span {
                                                        str: "-----",
                                                        start: 22,
                                                        end: 27,
                                                    },
                                                    inner: [],
                                                },
                                            ],
                                        },
                                        Pair {
                                            rule: LF_NEWLINE,
                                            span: Span {
                                                str: "\n",
                                                start: 27,
                                                end: 28,
                                            },
                                            inner: [
                                                Pair {
                                                    rule: correct_lf_newline,
                                                    span: Span {
                                                        str: "\n",
                                                        start: 27,
                                                        end: 28,
                                                    },
                                                    inner: [],
                                                },
                                            ],
                                        },
                                    ],
                                },
                                Pair {
                                    rule: pem_char_body,
                                    span: Span {
                                        str: "MIICLDCCAdKgAwIBAgIBADAKBggqhkjOPQQDAjB9MQswCQYDVQQGEwJCRTEPMA0G\nA1UEChMGR251VExTMSUwIwYDVQQLExxHbnVUTFMgY2VydGlmaWNhdGUgYXV0aG9y \naXR5MQ8wDQYDVQQIEwZMZXV2ZW4xJTAjBgNVBAMTHEdudVRMUyBjZXJ0aWZpY2F0\nZSBhdXRob3JpdHkwHhcNMTEwNTIzMjAzODIxWhcNMTIxMjIyMDc0MTUxWjB9MQsw\nCQYDVQQGEwJCRTEPMA0GA1UEChMGR251VExTMSUwIwYDVQQLExxHbnVUTFMgY2Vy\ndGlmaWNhdGUgYXV0aG9yaXR5MQ8wDQYDVQQIEwZMZXV2ZW4xJTAjBgNVBAMTHEdu\ndVRMUyBjZXJ0aWZpY2F0ZSBhdXRob3JpdHkwWTATBgcqhkjOPQIBBggqhkjOPQMB\nBwNCAARS2I0jiuNn14Y2sSALCX3IybqiIJUvxUpj+oNfzngvj/Niyv2394BWnW4X\nuQ4RTEiywK87WRcWMGgJB5kX/t2no0MwQTAPBgNVHRMBAf8EBTADAQH/MA8GA1Ud\nDwEB/wQFAwMHBgAwHQYDVR0OBBYEFPC0gf6YEr+1KLlkQAPLzB9mTigDMAoGCCqG\nSM49BAMCA0gAMEUCIDGuwD1KPyG+hRf88MeyMQcqOFZD0TbVleF+UsAGQ4enAiEA\nl4wOuDwKQa+upc8GftXE2C//4mKANBC6It01gUaTIpo=\n",
                                        start: 28,
                                        end: 789,
                                    },
                                    inner: [
                                        Pair {
                                            rule: pem_char_line,
                                            span: Span {
                                                str: "MIICLDCCAdKgAwIBAgIBADAKBggqhkjOPQQDAjB9MQswCQYDVQQGEwJCRTEPMA0G\n",
                                                start: 28,
                                                end: 93,
                                            },
                                            inner: [
                                                Pair {
                                                    rule: LF_NEWLINE,
                                                    span: Span {
                                                        str: "\n",
                                                        start: 92,
                                                        end: 93,
                                                    },
                                                    inner: [
                                                        Pair {
                                                            rule: correct_lf_newline,
                                                            span: Span {
                                                                str: "\n",
                                                                start: 92,
                                                                end: 93,
                                                            },
                                                            inner: [],
                                                        },
                                                    ],
                                                },
                                            ],
                                        },
                                        Pair {
                                            rule: pem_char_line,
                                            span: Span {
                                                str: "A1UEChMGR251VExTMSUwIwYDVQQLExxHbnVUTFMgY2VydGlmaWNhdGUgYXV0aG9y \n",
                                                start: 93,
                                                end: 159,
                                            },
                                            inner: [
                                                Pair {
                                                    rule: LF_NEWLINE,
                                                    span: Span {
                                                        str: " \n",
                                                        start: 157,
                                                        end: 159,
                                                    },
                                                    inner: [
                                                        Pair {
                                                            rule: error_trailing_whitespace,
                                                            span: Span {
                                                                str: " \n",
                                                                start: 157,
                                                                end: 159,
                                                            },
                                                            inner: [
                                                                Pair {
                                                                    rule: correct_lf_newline,
                                                                    span: Span {
                                                                        str: "\n",
                                                                        start: 158,
                                                                        end: 159,
                                                                    },
                                                                    inner: [],
                                                                },
                                                            ],
                                                        },
                                                    ],
                                                },
                                            ],
                                        },
                                        Pair {
                                            rule: pem_char_line,
                                            span: Span {
                                                str: "aXR5MQ8wDQYDVQQIEwZMZXV2ZW4xJTAjBgNVBAMTHEdudVRMUyBjZXJ0aWZpY2F0\n",
                                                start: 159,
                                                end: 224,
                                            },
                                            inner: [
                                                Pair {
                                                    rule: LF_NEWLINE,
                                                    span: Span {
                                                        str: "\n",
                                                        start: 223,
                                                        end: 224,
                                                    },
                                                    inner: [
                                                        Pair {
                                                            rule: correct_lf_newline,
                                                            span: Span {
                                                                str: "\n",
                                                                start: 223,
                                                                end: 224,
                                                            },
                                                            inner: [],
                                                        },
                                                    ],
                                                },
                                            ],
                                        },
                                        Pair {
                                            rule: pem_char_line,
                                            span: Span {
                                                str: "ZSBhdXRob3JpdHkwHhcNMTEwNTIzMjAzODIxWhcNMTIxMjIyMDc0MTUxWjB9MQsw\n",
                                                start: 224,
                                                end: 289,
                                            },
                                            inner: [
                                                Pair {
                                                    rule: LF_NEWLINE,
                                                    span: Span {
                                                        str: "\n",
                                                        start: 288,
                                                        end: 289,
                                                    },
                                                    inner: [
                                                        Pair {
                                                            rule: correct_lf_newline,
                                                            span: Span {
                                                                str: "\n",
                                                                start: 288,
                                                                end: 289,
                                                            },
                                                            inner: [],
                                                        },
                                                    ],
                                                },
                                            ],
                                        },
                                        Pair {
                                            rule: pem_char_line,
                                            span: Span {
                                                str: "CQYDVQQGEwJCRTEPMA0GA1UEChMGR251VExTMSUwIwYDVQQLExxHbnVUTFMgY2Vy\n",
                                                start: 289,
                                                end: 354,
                                            },
                                            inner: [
                                                Pair {
                                                    rule: LF_NEWLINE,
                                                    span: Span {
                                                        str: "\n",
                                                        start: 353,
                                                        end: 354,
                                                    },
                                                    inner: [
                                                        Pair {
                                                            rule: correct_lf_newline,
                                                            span: Span {
                                                                str: "\n",
                                                                start: 353,
                                                                end: 354,
                                                            },
                                                            inner: [],
                                                        },
                                                    ],
                                                },
                                            ],
                                        },
                                        Pair {
                                            rule: pem_char_line,
                                            span: Span {
                                                str: "dGlmaWNhdGUgYXV0aG9yaXR5MQ8wDQYDVQQIEwZMZXV2ZW4xJTAjBgNVBAMTHEdu\n",
                                                start: 354,
                                                end: 419,
                                            },
                                            inner: [
                                                Pair {
                                                    rule: LF_NEWLINE,
                                                    span: Span {
                                                        str: "\n",
                                                        start: 418,
                                                        end: 419,
                                                    },
                                                    inner: [
                                                        Pair {
                                                            rule: correct_lf_newline,
                                                            span: Span {
                                                                str: "\n",
                                                                start: 418,
                                                                end: 419,
                                                            },
                                                            inner: [],
                                                        },
                                                    ],
                                                },
                                            ],
                                        },
                                        Pair {
                                            rule: pem_char_line,
                                            span: Span {
                                                str: "dVRMUyBjZXJ0aWZpY2F0ZSBhdXRob3JpdHkwWTATBgcqhkjOPQIBBggqhkjOPQMB\n",
                                                start: 419,
                                                end: 484,
                                            },
                                            inner: [
                                                Pair {
                                                    rule: LF_NEWLINE,
                                                    span: Span {
                                                        str: "\n",
                                                        start: 483,
                                                        end: 484,
                                                    },
                                                    inner: [
                                                        Pair {
                                                            rule: correct_lf_newline,
                                                            span: Span {
                                                                str: "\n",
                                                                start: 483,
                                                                end: 484,
                                                            },
                                                            inner: [],
                                                        },
                                                    ],
                                                },
                                            ],
                                        },
                                        Pair {
                                            rule: pem_char_line,
                                            span: Span {
                                                str: "BwNCAARS2I0jiuNn14Y2sSALCX3IybqiIJUvxUpj+oNfzngvj/Niyv2394BWnW4X\n",
                                                start: 484,
                                                end: 549,
                                            },
                                            inner: [
                                                Pair {
                                                    rule: LF_NEWLINE,
                                                    span: Span {
                                                        str: "\n",
                                                        start: 548,
                                                        end: 549,
                                                    },
                                                    inner: [
                                                        Pair {
                                                            rule: correct_lf_newline,
                                                            span: Span {
                                                                str: "\n",
                                                                start: 548,
                                                                end: 549,
                                                            },
                                                            inner: [],
                                                        },
                                                    ],
                                                },
                                            ],
                                        },
                                        Pair {
                                            rule: pem_char_line,
                                            span: Span {
                                                str: "uQ4RTEiywK87WRcWMGgJB5kX/t2no0MwQTAPBgNVHRMBAf8EBTADAQH/MA8GA1Ud\n",
                                                start: 549,
                                                end: 614,
                                            },
                                            inner: [
                                                Pair {
                                                    rule: LF_NEWLINE,
                                                    span: Span {
                                                        str: "\n",
                                                        start: 613,
                                                        end: 614,
                                                    },
                                                    inner: [
                                                        Pair {
                                                            rule: correct_lf_newline,
                                                            span: Span {
                                                                str: "\n",
                                                                start: 613,
                                                                end: 614,
                                                            },
                                                            inner: [],
                                                        },
                                                    ],
                                                },
                                            ],
                                        },
                                        Pair {
                                            rule: pem_char_line,
                                            span: Span {
                                                str: "DwEB/wQFAwMHBgAwHQYDVR0OBBYEFPC0gf6YEr+1KLlkQAPLzB9mTigDMAoGCCqG\n",
                                                start: 614,
                                                end: 679,
                                            },
                                            inner: [
                                                Pair {
                                                    rule: LF_NEWLINE,
                                                    span: Span {
                                                        str: "\n",
                                                        start: 678,
                                                        end: 679,
                                                    },
                                                    inner: [
                                                        Pair {
                                                            rule: correct_lf_newline,
                                                            span: Span {
                                                                str: "\n",
                                                                start: 678,
                                                                end: 679,
                                                            },
                                                            inner: [],
                                                        },
                                                    ],
                                                },
                                            ],
                                        },
                                        Pair {
                                            rule: pem_char_line,
                                            span: Span {
                                                str: "SM49BAMCA0gAMEUCIDGuwD1KPyG+hRf88MeyMQcqOFZD0TbVleF+UsAGQ4enAiEA\n",
                                                start: 679,
                                                end: 744,
                                            },
                                            inner: [
                                                Pair {
                                                    rule: LF_NEWLINE,
                                                    span: Span {
                                                        str: "\n",
                                                        start: 743,
                                                        end: 744,
                                                    },
                                                    inner: [
                                                        Pair {
                                                            rule: correct_lf_newline,
                                                            span: Span {
                                                                str: "\n",
                                                                start: 743,
                                                                end: 744,
                                                            },
                                                            inner: [],
                                                        },
                                                    ],
                                                },
                                            ],
                                        },
                                        Pair {
                                            rule: pem_char_line_last,
                                            span: Span {
                                                str: "l4wOuDwKQa+upc8GftXE2C//4mKANBC6It01gUaTIpo=\n",
                                                start: 744,
                                                end: 789,
                                            },
                                            inner: [
                                                Pair {
                                                    rule: LF_NEWLINE,
                                                    span: Span {
                                                        str: "\n",
                                                        start: 788,
                                                        end: 789,
                                                    },
                                                    inner: [
                                                        Pair {
                                                            rule: correct_lf_newline,
                                                            span: Span {
                                                                str: "\n",
                                                                start: 788,
                                                                end: 789,
                                                            },
                                                            inner: [],
                                                        },
                                                    ],
                                                },
                                            ],
                                        },
                                    ],
                                },
                                Pair {
                                    rule: pem_footer_certificate,
                                    span: Span {
                                        str: "-----END CERTIFICATE-----\n",
                                        start: 789,
                                        end: 815,
                                    },
                                    inner: [
                                        Pair {
                                            rule: five_dashes,
                                            span: Span {
                                                str: "-----",
                                                start: 789,
                                                end: 794,
                                            },
                                            inner: [
                                                Pair {
                                                    rule: correct_five_dashes,
                                                    span: Span {
                                                        str: "-----",
                                                        start: 789,
                                                        end: 794,
                                                    },
                                                    inner: [],
                                                },
                                            ],
                                        },
                                        Pair {
                                            rule: END,
                                            span: Span {
                                                str: "END",
                                                start: 794,
                                                end: 797,
                                            },
                                            inner: [],
                                        },
                                        Pair {
                                            rule: space,
                                            span: Span {
                                                str: " ",
                                                start: 797,
                                                end: 798,
                                            },
                                            inner: [],
                                        },
                                        Pair {
                                            rule: CERTIFICATE,
                                            span: Span {
                                                str: "CERTIFICATE",
                                                start: 798,
                                                end: 809,
                                            },
                                            inner: [],
                                        },
                                        Pair {
                                            rule: five_dashes,
                                            span: Span {
                                                str: "-----",
                                                start: 809,
                                                end: 814,
                                            },
                                            inner: [
                                                Pair {
                                                    rule: correct_five_dashes,
                                                    span: Span {
                                                        str: "-----",
                                                        start: 809,
                                                        end: 814,
                                                    },
                                                    inner: [],
                                                },
                                            ],
                                        },
                                        Pair {
                                            rule: LF_NEWLINE,
                                            span: Span {
                                                str: "\n",
                                                start: 814,
                                                end: 815,
                                            },
                                            inner: [
                                                Pair {
                                                    rule: correct_lf_newline,
                                                    span: Span {
                                                        str: "\n",
                                                        start: 814,
                                                        end: 815,
                                                    },
                                                    inner: [],
                                                },
                                            ],
                                        },
                                    ],
                                },
                            ],
                        },
                    ],
                },
                Pair {
                    rule: eoi,
                    span: Span {
                        str: "",
                        start: 815,
                        end: 815,
                    },
                    inner: [
                        Pair {
                            rule: correct_eoi,
                            span: Span {
                                str: "",
                                start: 815,
                                end: 815,
                            },
                            inner: [
                                Pair {
                                    rule: EOI,
                                    span: Span {
                                        str: "",
                                        start: 815,
                                        end: 815,
                                    },
                                    inner: [],
                                },
                            ],
                        },
                    ],
                },
            ],
        },
    ],
)
